<?xml version="1.0" encoding="UTF-8"?>
<svg width="850px" height="762px" viewBox="0 0 850 762" version="1.1" xmlns="http://www.w3.org/2000/svg" xmlns:xlink="http://www.w3.org/1999/xlink">
    <!-- Generator: Sketch 51.1 (57501) - http://www.bohemiancoding.com/sketch -->
    <title>Oval</title>
    <desc>Created with Sketch.</desc>
    <defs></defs>
    <g id="Promo" stroke="none" stroke-width="1" fill="none" fill-rule="evenodd" opacity="0.045368">
        <g id="Artboard-2-Copy-2" transform="translate(-235.000000, -84.000000)" fill="#2E3696">
            <path d="M656.111443,845.383125 C833.998627,845.383125 1085,679.095001 1085,496.320806 C1085,313.546611 995.255879,-48.6899186 672.108203,134.17469 C348.960528,317.039298 214.311551,296.988914 237.553978,510.692032 C260.796406,724.39515 478.224258,845.383125 656.111443,845.383125 Z" id="Oval"></path>
        </g>
    </g>
</svg>